[
  {
  	"make": "chevy",
  	"oem_id": 1,
  	"meta_seo": [
      {
        "tag": "foo",
        "value": "bar"
      },
      {
        "tag": "a",
        "value": "a1"
      }
    ]
  },
  {
  	"make": "benz",
  	"oem_id": 2,
    "meta_seo": [
      {
        "tag": "foo",
        "value": "bar"
      },
      {
        "tag": "a",
        "value": "a1"
      }
    ]
  },
  {
  	"make": "bmw",
  	"oem_id": 3,
    "meta_seo": [
      {
        "tag": "foo",
        "value": "bar"
      },
      {
        "tag": "a",
        "value": "a1"
      }
    ]
  }
]
